Wind rose plot
…
day <- buoydata$DD

hour <- buoydata$HH

wind_spd <- buoydata$Vv_md

wind_dir <- buoydata$Dv_md

wind_df <- data.frame(year, month, day, hour, wind_spd, wind_dir)

wind_df_tbl <- wind_df %>% as_tibble()

wind_df_tbl

## # A tibble: 39,916 x 6
##     year month   day  hour wind_spd wind_dir
##    <int> <int> <int> <int>    <dbl>    <dbl>
##  1  2010     1     1     0     15.2      261
##  2  2010     1     1     1     15        261
##  3  2010     1     1     2     14.7      261
##  4  2010     1     1     3     14.2      267
##  5  2010     1     1     4     13.8      264
##  6  2010     1     1     5     13.5      270
##  7  2010     1     1     6     12.8      264
##  8  2010     1     1     7     11.9      267
##  9  2010     1     1     8     11        270
## 10  2010     1     1     9      9.3      247
## # ... with 39,906 more rows
…
Follow these steps to plot the wind rose to visualise how the wind blows in a particular area with a specific velocity and direction during the extreme seasons, winter and summer. The results can be compared to the one provided on the Spanish authorities website, Puertos del Estado, by specifying the exact period of observation. The method used to handle the NAs value in the following script has been mentioned in the earlier section. The only addition is that we need to specify which months belong to each season. In this case, DEC-JAN-FEB belongs to winter, while JUN-JUL-AUG belongs to summer as a standard convention being used.

Go to this link to get familiar with the wind rose plot.

Plot for winter wind data

winter_df <- wind_df_tbl_fixed %>%
  filter(wind_df_tbl_fixed$month == 12 |
    wind_df_tbl_fixed$month == 1 |
    wind_df_tbl_fixed$month == 2) # DEC-JAN-FEB

winter_df

## # A tibble: 7,755 x 7
##     year month   day  hour wind_spd wind_dir any_missing
##    <int> <int> <int> <int>    <dbl>    <dbl> <chr>      
##  1  2010     1     1     0     15.2      261 Not Missing
##  2  2010     1     1     1     15        261 Not Missing
##  3  2010     1     1     2     14.7      261 Not Missing
##  4  2010     1     1     3     14.2      267 Not Missing
##  5  2010     1     1     4     13.8      264 Not Missing
##  6  2010     1     1     5     13.5      270 Not Missing
##  7  2010     1     1     6     12.8      264 Not Missing
##  8  2010     1     1     7     11.9      267 Not Missing
##  9  2010     1     1     8     11        270 Not Missing
## 10  2010     1     1     9      9.3      247 Not Missing
## # ... with 7,745 more rows
…
Plot for summer wind data

summer_df <- wind_df_tbl_fixed %>%
  filter(wind_df_tbl_fixed$month == 6 |
    wind_df_tbl_fixed$month == 7 |
    wind_df_tbl_fixed$month == 8) # JUN-JUL-AUG

summer_df

## # A tibble: 11,039 x 7
##     year month   day  hour wind_spd wind_dir any_missing
##    <int> <int> <int> <int>    <dbl>    <dbl> <chr>      
##  1  2010     6     1     0      0.2      261 Not Missing
##  2  2010     6     1     1      2.8      343 Not Missing
##  3  2010     6     1     2      2.8      340 Not Missing
##  4  2010     6     1     3      1.6      320 Not Missing
##  5  2010     6     1     4      0.9      309 Not Missing
##  6  2010     6     1     5      0.9      323 Not Missing
##  7  2010     6     1     6      0.7       64 Not Missing
##  8  2010     6     1     7      1.6      337 Not Missing
##  9  2010     6     1     8      0.9      357 Not Missing
## 10  2010     6     1     9      1.6        2 Not Missing
## # ... with 11,029 more rows
…
